{
  "CacheSourceKey": "18pmuhh",
  "CachePdfKey": "18pmuhh/18pmuhh-ire9gq.pdf",
  "CacheXpzKey": "18pmuhh/18pmuhh-ro4ps7.xpz",
  "CacheCopyKey": null,
  "Document": "D:\\testnew\\test\\36\\120122\\1615433770\\UserReport.pdf",
  "DocumentHandlerType": null,
  "InputOptions": {
    "Format": "Pdf",
    "Password": null
  },
  "PdfOutputOptions": {
    "Watermarks": [],
    "FastWebViewEnabled": false,
    "Format": "Pdf"
  },
  "XpzOutputOptions": {
    "Password": "18pmuhh",
    "HighQualityEnabled": false,
    "Format": "Xpz"
  },
  "DownloadFileName": "UserReport.pdf",
  "DownloadEnabled": true,
  "DownloadAsPdfEnabled": false
}