{
  "CacheSourceKey": "17xq1vs",
  "CachePdfKey": "17xq1vs/17xq1vs-ire9gq.pdf",
  "CacheXpzKey": "17xq1vs/17xq1vs-12jltih.xpz",
  "CacheCopyKey": null,
  "Document": "D:\\testnew\\test\\36\\120122\\1644249327\\CategoryReport.pdf",
  "DocumentHandlerType": null,
  "InputOptions": {
    "Format": "Pdf",
    "Password": null
  },
  "PdfOutputOptions": {
    "Watermarks": [],
    "FastWebViewEnabled": false,
    "Format": "Pdf"
  },
  "XpzOutputOptions": {
    "Password": "17xq1vs",
    "HighQualityEnabled": false,
    "Format": "Xpz"
  },
  "DownloadFileName": "CategoryReport.pdf",
  "DownloadEnabled": true,
  "DownloadAsPdfEnabled": false
}