{
  "CacheSourceKey": "19tlbp5",
  "CachePdfKey": "19tlbp5/19tlbp5-ire9gq.pdf",
  "CacheXpzKey": "19tlbp5/19tlbp5-da8td0.xpz",
  "CacheCopyKey": null,
  "Document": "D:\\testnew\\test\\36\\120122\\1654029833\\RiskReport.pdf",
  "DocumentHandlerType": null,
  "InputOptions": {
    "Format": "Pdf",
    "Password": null
  },
  "PdfOutputOptions": {
    "Watermarks": [],
    "FastWebViewEnabled": false,
    "Format": "Pdf"
  },
  "XpzOutputOptions": {
    "Password": "19tlbp5",
    "HighQualityEnabled": false,
    "Format": "Xpz"
  },
  "DownloadFileName": "RiskReport.pdf",
  "DownloadEnabled": true,
  "DownloadAsPdfEnabled": false
}