{
  "CacheSourceKey": "om142k",
  "CachePdfKey": "om142k/om142k-ire9gq.pdf",
  "CacheXpzKey": "om142k/om142k-3dn7nt.xpz",
  "CacheCopyKey": null,
  "Document": "D:\\testnew\\test\\36\\120122\\1632139929\\ComprehensiveReport.pdf",
  "DocumentHandlerType": null,
  "InputOptions": {
    "Format": "Pdf",
    "Password": null
  },
  "PdfOutputOptions": {
    "Watermarks": [],
    "FastWebViewEnabled": false,
    "Format": "Pdf"
  },
  "XpzOutputOptions": {
    "Password": "om142k",
    "HighQualityEnabled": false,
    "Format": "Xpz"
  },
  "DownloadFileName": "ComprehensiveReport.pdf",
  "DownloadEnabled": true,
  "DownloadAsPdfEnabled": false
}