<svg xmlns="http://www.w3.org/2000/svg" width="40" height="44" viewBox="0 0 40 44">
    <g fill="none" fill-rule="evenodd">
        <circle cx="20" cy="20" r="20" fill="#E4F6FF"/>
        <g transform="translate(11 6)">
            <circle cx="5" cy="8" r="1" fill="#008BCF"/>
            <circle cx="5" cy="15" r="1" fill="#008BCF"/>
            <circle cx="5" cy="22" r="1" fill="#008BCF"/>
            <circle cx="5" cy="29" r="1" fill="#008BCF"/>
            <path fill="#008BCF" fill-rule="nonzero" d="M2 0h25c1.105 0 2 .895 2 2v34c0 1.105-.895 2-2 2H2c-1.105 0-2-.895-2-2V2C0 .895.895 0 2 0zm0 2v34h25V2H2z"/>
            <path stroke="#008BCF" stroke-linecap="round" stroke-width="2" d="M9.514 8L20.219 8M9.514 15L18.158 15M9.514 22L13.975 22M9.054 29L24 29"/>
            <circle cx="28" cy="14" r="1" fill="#008BCF"/>
            <circle cx="28" cy="35" r="1" fill="#008BCF"/>
        </g>
    </g>
</svg>
