   static void Main()
        {
            //#region Start Report 
            using (ExcelPackage exportPackge = new ExcelPackage())
            {
                try
                {
                    //ExcelPackage exportPackge = new ExcelPackage(finame);
                    Library.WriteErrorLog("ProcessComplianceReport started");
                    List<SP_GetComplianceAddedReport_Result> DailyList = new List<SP_GetComplianceAddedReport_Result>();
                    DateTime dtfrom = DateTime.Now.Date;
                    DateTime dtTo = DateTime.Now.Date;

                    DailyList = ComplianceManagement.ProcessComplianceAddedDailyReport(dtfrom, dtTo);

                    #region Save Data
                    if (DailyList.Count > 0)
                    {
                        using (ComplianceDBEntities entities = new ComplianceDBEntities())
                        {
                            List<DailyComplianceCount> dailyComplianceCount = new List<DailyComplianceCount>();

                            for (int i = 0; i < DailyList.Count; i++)
                            {
                                DailyComplianceCount daily = new DailyComplianceCount();
                                daily.UserID = DailyList[i].UserID;
                                daily.Created = (decimal)DailyList[i].Created;
                                daily.Reviewed = (decimal)DailyList[i].Reviewed;
                                daily.Pending = (decimal)DailyList[i].PendingcomplianceCount;
                                daily.PendingForReview = (decimal)DailyList[i].PendingForReviewCount;
                                daily.Date = DateTime.Now.Date;
                                dailyComplianceCount.Add(daily);
                            }
                            if (dailyComplianceCount.Count != 0)
                            {
                                ComplianceManagement.AddDailyCompliance(dailyComplianceCount);
                            }
                        }
                    }

                    if (DailyList.Count > 0)
                    {
                        using (ComplianceDBEntities entities = new ComplianceDBEntities())
                        {
                            List<DailyUserCount> dailyUserCount = new List<DailyUserCount>();

                            for (int i = 0; i < DailyList.Count; i++)
                            {
                                List<SP_GetComplianceReport_Result> DailyTotalCountList = new List<SP_GetComplianceReport_Result>();

                                DailyTotalCountList = ComplianceManagement.ProcessComplianceReport(dtfrom, dtTo, Convert.ToInt32(DailyList[i].UserID));

                                DailyUserCount daily = new DailyUserCount();
                                daily.UserID = DailyList[i].UserID;
                                daily.Count = (decimal)DailyTotalCountList[0].ComplianceCount;
                                daily.Date = DateTime.Now.Date;
                                dailyUserCount.Add(daily);
                            }
                            if (dailyUserCount.Count != 0)
                            {
                                ComplianceManagement.AddDailyUser(dailyUserCount);
                            }
                        }
                    }


                    if (DailyList.Count > 0)
                    {
                        using (ComplianceDBEntities entities = new ComplianceDBEntities())
                        {
                            List<DailyComplianceRework> reWorkComplianceCountList = new List<DailyComplianceRework>();

                            for (int i = 0; i < DailyList.Count; i++)
                            {
                                List<SP_GetReWorkComplianceReport_Result> ReWorkComplianceCountList = new List<SP_GetReWorkComplianceReport_Result>();

                                ReWorkComplianceCountList = ComplianceManagement.ProcessReWorkComplianceReport(dtfrom, dtTo, Convert.ToInt32(DailyList[i].UserID));

                                DailyComplianceRework daily = new DailyComplianceRework();
                                daily.UserID = DailyList[i].UserID;
                                daily.ReworkCount = (decimal)ReWorkComplianceCountList[0].ReworkcomplianceCount;
                                daily.PendingReworkCount = (decimal)ReWorkComplianceCountList[0].ReworkPendingCount;
                                daily.Date = DateTime.Now.Date;
                                reWorkComplianceCountList.Add(daily);
                            }
                            if (reWorkComplianceCountList.Count != 0)
                            {
                                ComplianceManagement.AddDailyReworkUser(reWorkComplianceCountList);
                            }
                        }
                    }
                    #endregion

                    #region Daily 
                    try
                    {
                        ExcelWorksheet exWorkSheet1 = exportPackge.Workbook.Worksheets.Add("Daily");

                        exWorkSheet1.Cells["A1"].Value = "Staff Name";
                        exWorkSheet1.Cells["A1"].Style.Font.Bold = true;
                        exWorkSheet1.Column(1).Width = 25;
                        exWorkSheet1.Cells["A1:A2"].Merge = true;
                        exWorkSheet1.SelectedRange["A1:A2"].Style.VerticalAlignment = OfficeOpenXml.Style.ExcelVerticalAlignment.Center;
                        exWorkSheet1.SelectedRange["A1:A2"].Style.HorizontalAlignment = OfficeOpenXml.Style.ExcelHorizontalAlignment.Center;

                        DateTime dtstart = new DateTime(2018, 08, 07);
                        DateTime dtend = DateTime.Now.Date;
                        int TotalColDaily = 0;
                        int rowIndex = 1;
                        int ColIndex = 2;
                        while (dtstart.Date <= dtend.Date)
                        {
                            exWorkSheet1.Cells[rowIndex, ColIndex].Value = dtend.ToString("dd-MMM-yyyy");

                            exWorkSheet1.Cells[rowIndex, ColIndex, rowIndex, ColIndex + 3].Merge = true;
                            exWorkSheet1.Cells[rowIndex, ColIndex, rowIndex, ColIndex + 4].Style.Font.Bold = true;
                            exWorkSheet1.Cells[rowIndex, ColIndex, rowIndex, ColIndex + 4].Style.HorizontalAlignment = OfficeOpenXml.Style.ExcelHorizontalAlignment.Center;
                            exWorkSheet1.Cells[rowIndex + 1, ColIndex].Value = "Created";
                            exWorkSheet1.Cells[rowIndex + 1, ColIndex, rowIndex + 1, ColIndex].Style.Font.Bold = true;
                            exWorkSheet1.Cells[rowIndex + 1, ColIndex + 1].Value = "Reviewed";
                            exWorkSheet1.Cells[rowIndex + 1, ColIndex + 1, rowIndex + 1, ColIndex + 1].Style.Font.Bold = true;
                            exWorkSheet1.Cells[rowIndex + 1, ColIndex + 2].Value = "PendingForReview";
                            exWorkSheet1.Cells[rowIndex + 1, ColIndex + 2, rowIndex + 1, ColIndex + 2].Style.Font.Bold = true;
                            exWorkSheet1.Cells[rowIndex + 1, ColIndex + 3].Value = "PendingForCreation";
                            exWorkSheet1.Cells[rowIndex + 1, ColIndex + 3, rowIndex + 1, ColIndex + 3].Style.Font.Bold = true;
                            ColIndex += 4;
                            dtend = dtend.AddDays(-1);
                        }

                        dtstart = new DateTime(2018, 08, 07);
                        dtend = DateTime.Now.Date;

                        var MasterQuery = ComplianceManagement.GetComplianceCreatedCount();

                        rowIndex = 3;
                        ColIndex = 1;
                        for (int i = 0; i < DailyList.Count; i++)
                        {
                            exWorkSheet1.Cells[rowIndex, ColIndex].Value = DailyList[i].Name;
                            exWorkSheet1.Cells.AutoFitColumns();
                            var UserMasterQuery = (from row in MasterQuery
                                                   where row.UserID == DailyList[i].UserID
                                                   select row).ToList();
                            ColIndex += 1;
                            while (dtstart.Date <= dtend.Date)
                            {
                                var transactionsQuery = (from row in UserMasterQuery
                                                         where row.Date.Day == dtend.Day
                                                        && row.Date.Month == dtend.Month
                                                        && row.Date.Year == dtend.Year
                                                         select row).FirstOrDefault();

                                if (transactionsQuery == null)
                                {
                                    exWorkSheet1.Cells[rowIndex, ColIndex].Value = 0;
                                    ColIndex += 1;
                                    exWorkSheet1.Cells[rowIndex, ColIndex].Value = 0;
                                    ColIndex += 1;
                                    exWorkSheet1.Cells[rowIndex, ColIndex].Value = 0;
                                    ColIndex += 1;
                                    exWorkSheet1.Cells[rowIndex, ColIndex].Value = 0;
                                    ColIndex += 1;
                                }
                                else
                                {
                                    exWorkSheet1.Cells[rowIndex, ColIndex].Value = transactionsQuery.Created;
                                    ColIndex += 1;
                                    exWorkSheet1.Cells[rowIndex, ColIndex].Value = transactionsQuery.Reviewed;
                                    ColIndex += 1;
                                    exWorkSheet1.Cells[rowIndex, ColIndex].Value = transactionsQuery.PendingForReview;
                                    ColIndex += 1;
                                    exWorkSheet1.Cells[rowIndex, ColIndex].Value = transactionsQuery.Pending;
                                    ColIndex += 1;
                                }
                                dtend = dtend.AddDays(-1);
                            }
                            dtend = DateTime.Now.Date;
                            rowIndex += 1;
                            TotalColDaily = ColIndex - 1;
                            ColIndex = 1;
                        }
                        using (ExcelRange col = exWorkSheet1.Cells[1, 1, rowIndex - 1, TotalColDaily])
                        {
                            //col.Style.WrapText = true;
                            col.Style.Border.Top.Style = ExcelBorderStyle.Thin;
                            col.Style.Border.Left.Style = ExcelBorderStyle.Thin;
                            col.Style.Border.Right.Style = ExcelBorderStyle.Thin;
                            col.Style.Border.Bottom.Style = ExcelBorderStyle.Thin;
                            //col.Style.VerticalAlignment = ExcelVerticalAlignment.Top;
                        }
                    }
                    catch (Exception)
                    {
                    }
                    #endregion

                    #region Weekly 
                    try
                    {
                        ExcelWorksheet exWorkSheet2 = exportPackge.Workbook.Worksheets.Add("Weekly");

                        exWorkSheet2.Cells["A1"].Value = "Staff Name";
                        exWorkSheet2.Cells["A1"].Style.Font.Bold = true;
                        exWorkSheet2.Column(1).Width = 25;

                        string dayOfWeek = DateTime.Today.DayOfWeek.ToString().ToLower();
                        int TotalColWeekly = 0;
                        int offSet = 0;

                        switch (dayOfWeek)
                        {
                            case "sunday":
                                offSet = 0;
                                break;
                            case "monday":
                                offSet = 1;
                                break;
                            case "tuesday":
                                offSet = 2;
                                break;
                            case "wednesday":
                                offSet = 3;
                                break;
                            case "thursday":
                                offSet = 4;
                                break;
                            case "friday":
                                offSet = 5;
                                break;
                            case "saturday":
                                offSet = 6;
                                break;
                        }

                        DateTime offSetenddate = DateTime.Now.AddDays(-offSet);

                        DateTime dtstart = new DateTime(2018, 08, 07);
                        DateTime dtend = offSetenddate;

                        DateTime dtendtemp = offSetenddate;
                        DateTime dtstarttemp = new DateTime(2018, 08, 07);
                        int rowIndex = 1;
                        int ColIndex = 2;

                        while (dtendtemp.Date >= dtstarttemp)
                        {
                            dtstart = dtendtemp.AddDays(-6);
                            exWorkSheet2.Cells[rowIndex, ColIndex].Value = "" + dtstart.ToString("dd-MMM-yy") + "To" + dtendtemp.ToString("dd-MMM-yy") + "";
                            exWorkSheet2.Cells[rowIndex, ColIndex, rowIndex, ColIndex].Style.Font.Bold = true;

                            exWorkSheet2.Cells.AutoFitColumns();
                            ColIndex += 1;
                            dtendtemp = dtstart.AddDays(-1);
                        }


                        dtstart = new DateTime(2018, 08, 07);
                        dtend = offSetenddate;
                        dtendtemp = offSetenddate;
                        dtstarttemp = new DateTime(2018, 08, 07);
                        var WeeklyMasterQuery = ComplianceManagement.GetDailyUserCount();

                        rowIndex = 2;
                        ColIndex = 1;
                        for (int i = 0; i < DailyList.Count; i++)
                        {
                            exWorkSheet2.Cells[rowIndex, ColIndex].Value = DailyList[i].Name;
                            exWorkSheet2.Cells.AutoFitColumns();
                            var UserWeeklyMasterQuery = (from row in WeeklyMasterQuery
                                                         where row.UserID == DailyList[i].UserID
                                                         select row).ToList();
                            ColIndex += 1;
                            while (dtendtemp.Date >= dtstarttemp)
                            {
                                dtstart = dtendtemp.AddDays(-6);
                                var transactionsQuery = (from row in UserWeeklyMasterQuery
                                                         where row.Date >= dtstart.Date
                                                         && row.Date <= dtendtemp.Date
                                                         select row).ToList();

                                var sum = transactionsQuery.Select(c => c.Count).Sum();

                                exWorkSheet2.Cells[rowIndex, ColIndex].Value = sum;
                                ColIndex += 1;

                                dtendtemp = dtstart.AddDays(-1);
                            }
                            dtendtemp = offSetenddate;
                            rowIndex += 1;
                            TotalColWeekly = ColIndex - 1;
                            ColIndex = 1;
                        }

                        using (ExcelRange col = exWorkSheet2.Cells[1, 1, rowIndex - 1, TotalColWeekly])
                        {
                            //col.Style.WrapText = true;
                            col.Style.Border.Top.Style = ExcelBorderStyle.Thin;
                            col.Style.Border.Left.Style = ExcelBorderStyle.Thin;
                            col.Style.Border.Right.Style = ExcelBorderStyle.Thin;
                            col.Style.Border.Bottom.Style = ExcelBorderStyle.Thin;
                            //col.Style.VerticalAlignment = ExcelVerticalAlignment.Top;
                        }
                    }
                    catch (Exception)
                    {
                    }
                    #endregion

                    #region Monthly 
                    try
                    {
                        ExcelWorksheet exWorkSheet3 = exportPackge.Workbook.Worksheets.Add("Monthly");

                        exWorkSheet3.Cells["A1"].Value = "Staff Name";
                        exWorkSheet3.Cells["A1"].Style.Font.Bold = true;
                        exWorkSheet3.Column(1).Width = 25;
                        int TotalColMonth = 0;
                        var today = DateTime.Today;
                        DateTime startDate = new DateTime(today.Year, today.Month - 1, 1);
                        DateTime endDate = new DateTime(today.Year, today.Month, 1).AddDays(-1);

                        DateTime dtendtemp = startDate;
                        DateTime dtstarttemp = new DateTime(2018, 08, 07);
                        int rowIndex = 1;
                        int ColIndex = 2;

                        while (dtendtemp.Date >= dtstarttemp)
                        {
                            exWorkSheet3.Cells[rowIndex, ColIndex].Value = dtendtemp.ToString("MMM-yy");
                            exWorkSheet3.Cells[rowIndex, ColIndex, rowIndex, ColIndex].Style.Font.Bold = true;

                            exWorkSheet3.Cells.AutoFitColumns();
                            ColIndex += 1;
                            dtendtemp = dtendtemp.AddMonths(-1);
                        }

                        var WeeklyMasterQuery = ComplianceManagement.GetDailyUserCount();
                        dtendtemp = startDate;
                        dtstarttemp = new DateTime(2018, 08, 07);
                        DateTime dtend = endDate;
                        rowIndex = 2;
                        ColIndex = 1;

                        DateTime tempstatrtdate1;
                        DateTime tempendDate1;
                        tempstatrtdate1 = startDate;
                        tempendDate1 = endDate;
                        for (int i = 0; i < DailyList.Count; i++)
                        {
                            exWorkSheet3.Cells[rowIndex, ColIndex].Value = DailyList[i].Name;
                            exWorkSheet3.Cells.AutoFitColumns();
                            var UserWeeklyMasterQuery = (from row in WeeklyMasterQuery
                                                         where row.UserID == DailyList[i].UserID
                                                         select row).ToList();
                            ColIndex += 1;
                            while (dtendtemp.Date >= dtstarttemp)
                            {
                                var transactionsQuery = (from row in UserWeeklyMasterQuery
                                                         where row.Date >= tempstatrtdate1.Date
                                                         && row.Date <= tempendDate1.Date
                                                         select row).ToList();

                                var sum = transactionsQuery.Select(c => c.Count).Sum();

                                exWorkSheet3.Cells[rowIndex, ColIndex].Value = sum;
                                ColIndex += 1;

                                dtendtemp = dtendtemp.AddMonths(-1);
                                tempstatrtdate1 = tempstatrtdate1.AddMonths(-1);
                                tempendDate1 = tempendDate1.AddMonths(-1);
                            }
                            tempstatrtdate1 = startDate;
                            tempendDate1 = endDate;
                            DateTime tempstatrtdate = startDate;
                            DateTime tempendDate = endDate;
                            dtendtemp = startDate;
                            dtstarttemp = new DateTime(2018, 08, 07);
                            rowIndex += 1;
                            TotalColMonth = ColIndex - 1;
                            ColIndex = 1;
                        }

                        using (ExcelRange col = exWorkSheet3.Cells[1, 1, rowIndex - 1, TotalColMonth])
                        {
                            //col.Style.WrapText = true;
                            col.Style.Border.Top.Style = ExcelBorderStyle.Thin;
                            col.Style.Border.Left.Style = ExcelBorderStyle.Thin;
                            col.Style.Border.Right.Style = ExcelBorderStyle.Thin;
                            col.Style.Border.Bottom.Style = ExcelBorderStyle.Thin;
                            //col.Style.VerticalAlignment = ExcelVerticalAlignment.Top;
                        }
                    }
                    catch (Exception)
                    {
                    }
                    #endregion

                    #region Rework 
                    try
                    {
                        ExcelWorksheet exWorkSheet4 = exportPackge.Workbook.Worksheets.Add("Rework");
                        int TotalCol = 0;
                        exWorkSheet4.Cells["A1"].Value = "Staff Name";
                        exWorkSheet4.Cells["A1"].Style.Font.Bold = true;
                        exWorkSheet4.Column(1).Width = 25;
                        exWorkSheet4.Cells["A1:A2"].Merge = true;
                        exWorkSheet4.SelectedRange["A1:A2"].Style.VerticalAlignment = OfficeOpenXml.Style.ExcelVerticalAlignment.Center;
                        exWorkSheet4.SelectedRange["A1:A2"].Style.HorizontalAlignment = OfficeOpenXml.Style.ExcelHorizontalAlignment.Center;

                        DateTime dtstart = new DateTime(2018, 08, 07);
                        DateTime dtend = DateTime.Now.Date;

                        int rowIndex = 1;
                        int ColIndex = 2;
                        while (dtstart.Date <= dtend.Date)
                        {
                            exWorkSheet4.Cells[rowIndex, ColIndex].Value = dtend.ToString("dd-MMM-yyyy");

                            exWorkSheet4.Cells[rowIndex, ColIndex, rowIndex, ColIndex + 1].Merge = true;
                            exWorkSheet4.Cells[rowIndex, ColIndex, rowIndex, ColIndex + 2].Style.Font.Bold = true;
                            exWorkSheet4.Cells[rowIndex, ColIndex, rowIndex, ColIndex + 2].Style.HorizontalAlignment = OfficeOpenXml.Style.ExcelHorizontalAlignment.Center;
                            exWorkSheet4.Cells[rowIndex + 1, ColIndex].Value = "Rework";
                            exWorkSheet4.Cells[rowIndex + 1, ColIndex, rowIndex + 1, ColIndex].Style.Font.Bold = true;
                            exWorkSheet4.Cells[rowIndex + 1, ColIndex + 1].Value = "Pending Rework";
                            exWorkSheet4.Cells[rowIndex + 1, ColIndex + 1, rowIndex + 1, ColIndex + 1].Style.Font.Bold = true;
                            ColIndex += 2;
                            dtend = dtend.AddDays(-1);
                            exWorkSheet4.Cells.AutoFitColumns();
                        }

                        dtstart = new DateTime(2018, 08, 07);
                        dtend = DateTime.Now.Date;

                        var MasterQuery = ComplianceManagement.GetComplianceReworkCount();

                        rowIndex = 3;
                        ColIndex = 1;
                        for (int i = 0; i < DailyList.Count; i++)
                        {
                            exWorkSheet4.Cells[rowIndex, ColIndex].Value = DailyList[i].Name;
                            exWorkSheet4.Cells.AutoFitColumns();
                            var UserMasterQuery = (from row in MasterQuery
                                                   where row.UserID == DailyList[i].UserID
                                                   select row).ToList();
                            ColIndex += 1;
                            while (dtstart.Date <= dtend.Date)
                            {
                                var transactionsQuery = (from row in UserMasterQuery
                                                         where row.Date.Day == dtend.Day
                                                        && row.Date.Month == dtend.Month
                                                        && row.Date.Year == dtend.Year
                                                         select row).FirstOrDefault();
                                if(transactionsQuery== null)
                                {
                                    exWorkSheet4.Cells[rowIndex, ColIndex].Value = 0;
                                    ColIndex += 1;
                                    exWorkSheet4.Cells[rowIndex, ColIndex].Value = 0;
                                    ColIndex += 1;

                                }
                                else
                                {
                                    exWorkSheet4.Cells[rowIndex, ColIndex].Value = transactionsQuery.ReworkCount;
                                    ColIndex += 1;
                                    exWorkSheet4.Cells[rowIndex, ColIndex].Value = transactionsQuery.PendingReworkCount;
                                    ColIndex += 1;

                                }
                                dtend = dtend.AddDays(-1);
                            }
                            dtend = DateTime.Now.Date;
                            rowIndex += 1;
                            TotalCol = ColIndex - 1;
                            ColIndex = 1;
                        }

                        using (ExcelRange col = exWorkSheet4.Cells[1, 1, rowIndex - 1, TotalCol])
                        {
                            //col.Style.WrapText = true;
                            col.Style.Border.Top.Style = ExcelBorderStyle.Thin;
                            col.Style.Border.Left.Style = ExcelBorderStyle.Thin;
                            col.Style.Border.Right.Style = ExcelBorderStyle.Thin;
                            col.Style.Border.Bottom.Style = ExcelBorderStyle.Thin;
                            //col.Style.VerticalAlignment = ExcelVerticalAlignment.Top;
                        }
                    }
                    catch (Exception)
                    {
                    }
                    #endregion

                    #region File Save Code Comment
                    //byte[] data = exportPackge.GetAsByteArray();

                    //string path = @"D:\Excels\REPORT.xlsx";

                    //if (System.IO.File.Exists(path))
                    //{
                    //    System.IO.File.Delete(path);
                    //}

                    //File.WriteAllBytes(path, data);

                    #endregion

                    byte[] data = exportPackge.GetAsByteArray();
                    var EscalationEmail = Settings.Default.EMailTemplate_ComplianceAddedMailSummary
                                                   .Replace("@URL", Convert.ToString(ConfigurationManager.AppSettings["PortalURL"]))
                                                   .Replace("@From", "Avantis");

                    StringBuilder details = new StringBuilder();
                    StringBuilder detailsReviewed = new StringBuilder();

                    string message = EscalationEmail.Replace("@dtfrom", dtfrom.ToString("dd-MMM-yyyy")).Replace("@dtTo", dtTo.ToString("dd-MMM-yyyy")).Replace("@Details", details.ToString()).Replace("@ReviewedDetails", detailsReviewed.ToString());

                    List<Attachment> attachment = new List<Attachment>();
                    string file = "ComplianceReport" + DateTime.Now.Date.ToString("dd-MMM-yyyy") + ".xlsx";

                    attachment.Add(new Attachment(new MemoryStream(data), file));

                    //EmailManager.SendMail(ConfigurationManager.AppSettings["SenderEmailAddress"], (new string[] { ConfigurationManager.AppSettings["ComplianceDetailsMailReceiver"] }).ToList(), null, null, "AVACOM Reminder: Compliance Added Report", message, attachment);

                    Library.WriteErrorLog("ProcessComplianceReport Closed");
                }
                catch (Exception ex)
                {
                    Library.WriteErrorLog("ProcessComplianceReport Exception");
                    LoggerMessage.InsertLog(ex, MethodBase.GetCurrentMethod().DeclaringType.ToString(), MethodBase.GetCurrentMethod().Name);
                }

                #region Comment
                //try
                //{
                //    Library.WriteErrorLog("ProcessComplianceReport started");
                //    List<int> updatedComplianceReminders = new List<int>();
                //    List<SP_GetComplianceApprovalLiveCountReport_Result> ComplianceRemindersList = new List<SP_GetComplianceApprovalLiveCountReport_Result>();
                //    ComplianceRemindersList = ComplianceManagement.ProcessComplianceReport();
                //    if (ComplianceRemindersList.Count > 0)
                //    {
                //        DateTime dtfrom = DateTime.Now.Date;
                //        DateTime dtTo = DateTime.Now.Date;
                //        //dtfrom = dtTo.AddDays(-5);

                //        //dtfrom = dtTo.AddDays(-9);
                //        //dtTo = dtTo.AddDays(-4);

                //        var EscalationEmail = Settings.Default.EMailTemplate_ComplianceAddedMailSummary
                //                                           .Replace("@URL", Convert.ToString(ConfigurationManager.AppSettings["PortalURL"]))
                //                                           .Replace("@From", "Avantis");

                //        StringBuilder details = new StringBuilder();
                //        StringBuilder detailsReviewed = new StringBuilder();

                //        int TPendingComplianceCount = 0;

                //        int TApprovalcomplianceCount = 0;
                //        int TApprovalEventBasedcomplianceCount = 0;
                //        int TApprovalChecklistCount = 0;

                //        int TPendingComplianceCountHorizontal = 0;
                //        int TApprovalReviewercomplianceCount = 0;
                //        int TApprovalReviewerEventBasedcomplianceCount = 0;
                //        int TApprovalReviewerChecklistCount = 0;

                //        int TLiveAddedcomplianceCount = 0;
                //        int TLiveAddedEventBasedcomplianceCount = 0;
                //        int TLiveAddedChecklistCount = 0;
                //        int TLiveUpdatedcomplianceCount = 0;
                //        int TLiveUpdatedEventBasedcomplianceCount = 0;
                //        int TLiveUpdatedChecklistCount = 0;
                //        int TVerticalAdded = 0;
                //        int TVertical = 0;
                //        int THorizontal = 0;
                //        int THorizontalAdded = 0;
                //        int TReviewerVertical = 0;
                //        int TReviewerHorizontal = 0;

                //        foreach (var row in ComplianceRemindersList)
                //        {
                //            TVertical = Convert.ToInt32(row.ApprovalcomplianceCount) + Convert.ToInt32(row.ApprovalEventBasedcomplianceCount) + Convert.ToInt32(row.ApprovalChecklistCount)
                //               + Convert.ToInt32(row.LiveAddedcomplianceCount) + Convert.ToInt32(row.LiveAddedEventBasedcomplianceCount) + Convert.ToInt32(row.LiveAddedChecklistCount)
                //               + Convert.ToInt32(row.LiveUpdatedcomplianceCount) + Convert.ToInt32(row.LiveUpdatedEventBasedcomplianceCount) + Convert.ToInt32(row.LiveUpdatedChecklistCount);

                //            TVerticalAdded = Convert.ToInt32(row.ApprovalcomplianceCount) + Convert.ToInt32(row.ApprovalEventBasedcomplianceCount) + Convert.ToInt32(row.ApprovalChecklistCount)
                //               + Convert.ToInt32(row.LiveAddedcomplianceCount) + Convert.ToInt32(row.LiveAddedEventBasedcomplianceCount) + Convert.ToInt32(row.LiveAddedChecklistCount);



                //            details.AppendLine(Settings.Default.EMailTemplate_ComplianceAddedSummaryRows
                //                .Replace("@name", row.Name)
                //                .Replace("@dtfrom", dtfrom.ToString("dd-MMM-yyyy"))
                //                .Replace("@dtTo", dtTo.ToString("dd-MMM-yyyy"))
                //                .Replace("@TotalPending", row.PendingcomplianceCount.ToString())
                //                .Replace("@ApprovalStatutory", row.ApprovalcomplianceCount.ToString())
                //                .Replace("@ApprovalEvantBased", row.ApprovalEventBasedcomplianceCount.ToString())
                //                .Replace("@ApprovalChecklist", row.ApprovalChecklistCount.ToString())
                //                .Replace("@LiveAddedStatutory", row.LiveAddedcomplianceCount.ToString())
                //                .Replace("@LiveAddedEvantBased", row.LiveAddedEventBasedcomplianceCount.ToString())
                //                .Replace("@LiveAddedChecklist", row.LiveAddedChecklistCount.ToString())
                //                .Replace("@TotalAdded", TVerticalAdded.ToString())
                //                .Replace("@LiveUpdatedStatutory", row.LiveUpdatedcomplianceCount.ToString())
                //                .Replace("@LiveUpdatedEvantBased", row.LiveUpdatedEventBasedcomplianceCount.ToString())
                //                .Replace("@LiveUpdatedChecklist", row.LiveUpdatedChecklistCount.ToString())
                //                .Replace("@Total", TVertical.ToString()));

                //            TPendingComplianceCountHorizontal += Convert.ToInt32(row.PendingcomplianceCount);

                //            THorizontalAdded += TVerticalAdded;
                //            TVertical = 0;
                //            TVerticalAdded = 0;

                //            TReviewerVertical = Convert.ToInt32(row.ApprovalReviewercomplianceCount) + Convert.ToInt32(row.ApprovalReviewerEventBasedcomplianceCount) + Convert.ToInt32(row.ApprovalReviewerChecklistCount);

                //            detailsReviewed.AppendLine(Settings.Default.EMailTemplate_ComplianceReviewedSummaryRows
                //               .Replace("@Reviewername", row.Name)
                //               .Replace("@ApprovalReviewerStatutory", row.ApprovalReviewercomplianceCount.ToString())
                //               .Replace("@ApprovalReviewerEvantBased", row.ApprovalReviewerEventBasedcomplianceCount.ToString())
                //               .Replace("@ApprovalReviewerChecklist", row.ApprovalReviewerChecklistCount.ToString())
                //               .Replace("@ReviewerTotal", TReviewerVertical.ToString()));

                //            TReviewerVertical = 0;

                //            TApprovalcomplianceCount += Convert.ToInt32(row.ApprovalcomplianceCount);
                //            TApprovalEventBasedcomplianceCount += Convert.ToInt32(row.ApprovalEventBasedcomplianceCount);
                //            TApprovalChecklistCount += Convert.ToInt32(row.ApprovalChecklistCount);

                //            TLiveAddedcomplianceCount += Convert.ToInt32(row.LiveAddedcomplianceCount);
                //            TLiveAddedEventBasedcomplianceCount += Convert.ToInt32(row.LiveAddedEventBasedcomplianceCount);
                //            TLiveAddedChecklistCount += Convert.ToInt32(row.LiveAddedChecklistCount);
                //            TLiveUpdatedcomplianceCount += Convert.ToInt32(row.LiveUpdatedcomplianceCount);
                //            TLiveUpdatedEventBasedcomplianceCount += Convert.ToInt32(row.LiveUpdatedEventBasedcomplianceCount);
                //            TLiveUpdatedChecklistCount += Convert.ToInt32(row.LiveUpdatedChecklistCount);

                //            THorizontal = TApprovalcomplianceCount + TApprovalEventBasedcomplianceCount + TApprovalChecklistCount
                //                + TLiveAddedcomplianceCount + TLiveAddedEventBasedcomplianceCount + TLiveAddedChecklistCount +
                //                TLiveUpdatedcomplianceCount + TLiveUpdatedEventBasedcomplianceCount + TLiveUpdatedChecklistCount;

                //          TApprovalReviewercomplianceCount += Convert.ToInt32(row.ApprovalReviewercomplianceCount);
                //            TApprovalReviewerEventBasedcomplianceCount += Convert.ToInt32(row.ApprovalReviewerEventBasedcomplianceCount);
                //            TApprovalReviewerChecklistCount += Convert.ToInt32(row.ApprovalReviewerChecklistCount);
                //            TReviewerHorizontal = TApprovalReviewercomplianceCount + TApprovalReviewerEventBasedcomplianceCount + TApprovalReviewerChecklistCount;
                //        }

                //        detailsReviewed.AppendLine(Settings.Default.EMailTemplate_ComplianceReviewedTotalSummaryRows
                //                       .Replace("@TReviewedApprovalStatutory", TApprovalReviewercomplianceCount.ToString())
                //                       .Replace("@TReviewedApprovalEvantBased", TApprovalReviewerEventBasedcomplianceCount.ToString())
                //                       .Replace("@TReviewedApprovalChecklist", TApprovalReviewerChecklistCount.ToString())
                //                       .Replace("@TReviewedLive", TReviewerHorizontal.ToString()));

                //        details.AppendLine(Settings.Default.EMailTemplate_ComplianceTotalSummaryRows
                //                       .Replace("@TApprovalStatutory", TApprovalcomplianceCount.ToString())
                //                       .Replace("@TApprovalEvantBased", TApprovalEventBasedcomplianceCount.ToString())
                //                       .Replace("@TApprovalChecklist", TApprovalChecklistCount.ToString())
                //                       .Replace("@TLiveAddedStatutory", TLiveAddedcomplianceCount.ToString())
                //                       .Replace("@TLiveAddedEvantBased", TLiveAddedEventBasedcomplianceCount.ToString())
                //                       .Replace("@TLiveAddedChecklist", TLiveAddedChecklistCount.ToString())
                //                       .Replace("@TTPending", TPendingComplianceCountHorizontal.ToString())
                //                       .Replace("@TTAdded", THorizontalAdded.ToString())
                //                       .Replace("@TLiveUpdatedStatutory", TLiveUpdatedcomplianceCount.ToString())
                //                       .Replace("@TLiveUpdatedEvantBased", TLiveUpdatedEventBasedcomplianceCount.ToString())
                //                       .Replace("@TLiveUpdatedChecklist", TLiveUpdatedChecklistCount.ToString())
                //                       .Replace("@TLive", THorizontal.ToString()));

                //        string message = EscalationEmail.Replace("@dtfrom", dtfrom.ToString("dd-MMM-yyyy")).Replace("@dtTo", dtTo.ToString("dd-MMM-yyyy")).Replace("@Details", details.ToString()).Replace("@ReviewedDetails", detailsReviewed.ToString());

                //        EmailManager.SendMail(ConfigurationManager.AppSettings["SenderEmailAddress"], (new string[] { ConfigurationManager.AppSettings["ComplianceDetailsMailReceiver"] }).ToList(), null, null, "AVACOM Reminder: Compliance Added Report", message);
                //    }
                //    Library.WriteErrorLog("ProcessComplianceReport Closed");
                //}
                //catch (Exception ex)
                //{
                //    Library.WriteErrorLog("ProcessComplianceReport Exception");
                //    LoggerMessage.InsertLog(ex, MethodBase.GetCurrentMethod().DeclaringType.ToString(), MethodBase.GetCurrentMethod().Name);
                //}

                //#endregion EndReport

                #endregion
            }
        }