{
  "CacheSourceKey": "1tlccdb",
  "CachePdfKey": "1tlccdb/1tlccdb-ire9gq.pdf",
  "CacheXpzKey": "1tlccdb/1tlccdb-z1kvmt.xpz",
  "CacheCopyKey": null,
  "Document": "D:\\testnew\\test\\36\\120122\\1630394854\\ComprehensiveReport.pdf",
  "DocumentHandlerType": null,
  "InputOptions": {
    "Format": "Pdf",
    "Password": null
  },
  "PdfOutputOptions": {
    "Watermarks": [],
    "FastWebViewEnabled": false,
    "Format": "Pdf"
  },
  "XpzOutputOptions": {
    "Password": "1tlccdb",
    "HighQualityEnabled": false,
    "Format": "Xpz"
  },
  "DownloadFileName": "ComprehensiveReport.pdf",
  "DownloadEnabled": true,
  "DownloadAsPdfEnabled": false
}