<svg width="18" height="16" viewBox="0 0 18 16" fill="none" xmlns="http://www.w3.org/2000/svg">
<path d="M8.91413 1.6C12.5347 1.6 15.4821 4.472 15.4821 8C15.4821 11.528 12.5347 14.4 8.91413 14.4C5.2935 14.4 2.34611 11.528 2.34611 8C2.34611 4.472 5.2935 1.6 8.91413 1.6ZM8.91413 0C4.37973 0 0.704102 3.5816 0.704102 8C0.704102 12.4184 4.37973 16 8.91413 16C13.4485 16 17.1241 12.4184 17.1241 8C17.1241 3.5816 13.4485 0 8.91413 0ZM12.0339 10.72L9.73513 7.7336V4H8.09312V8.2664L10.7203 11.6792L12.0339 10.7192V10.72Z" fill="#86898A"/>
</svg>
