{
  "CacheSourceKey": "oon9nb",
  "CachePdfKey": "oon9nb/oon9nb-ire9gq.pdf",
  "CacheXpzKey": "oon9nb/oon9nb-8a69wa.xpz",
  "CacheCopyKey": null,
  "Document": "D:\\testnew\\test\\36\\120122\\1614010113\\UserReport.pdf",
  "DocumentHandlerType": null,
  "InputOptions": {
    "Format": "Pdf",
    "Password": null
  },
  "PdfOutputOptions": {
    "Watermarks": [],
    "FastWebViewEnabled": false,
    "Format": "Pdf"
  },
  "XpzOutputOptions": {
    "Password": "oon9nb",
    "HighQualityEnabled": false,
    "Format": "Xpz"
  },
  "DownloadFileName": "UserReport.pdf",
  "DownloadEnabled": true,
  "DownloadAsPdfEnabled": false
}