{
  "CacheSourceKey": "1ezubd0",
  "CachePdfKey": "1ezubd0/1ezubd0-ire9gq.pdf",
  "CacheXpzKey": "1ezubd0/1ezubd0-fjeibc.xpz",
  "CacheCopyKey": null,
  "Document": "D:\\testnew\\test\\36\\120122\\1611475557\\ComprehensiveReport.pdf",
  "DocumentHandlerType": null,
  "InputOptions": {
    "Format": "Pdf",
    "Password": null
  },
  "PdfOutputOptions": {
    "Watermarks": [],
    "FastWebViewEnabled": false,
    "Format": "Pdf"
  },
  "XpzOutputOptions": {
    "Password": "1ezubd0",
    "HighQualityEnabled": false,
    "Format": "Xpz"
  },
  "DownloadFileName": "ComprehensiveReport.pdf",
  "DownloadEnabled": true,
  "DownloadAsPdfEnabled": false
}